{
  "first_night": [
    "pandora",
    "akhlys",
    "dionysus",
    "persephone",
    "andromeda",
    "cassandra",
    "polynices",
    "argos",
    "lachesis"
  ],
  "other_nights": [
    "asclepius",
    "cassandra",
    "persephone",
    "polynices",
    "aphrodite",
    "pandora",
    "akhlys",
    "hydra",
    "hermes",
    "siren",
    "charon",
    "dionysus",
    "eris",
    "hades",
    "apollo",
    "argos",
    "artemis",
    "lachesis",
    "phoenix"
  ]
}
