[
    {
        "id": "_meta",
        "name": "Murder Mythery",
        "logo": "https://excitemike.com/botc_murder_mythery/img/_meta.png",
        "author": "Stefanie"
    },
    {
        "id": "akhlys",
        "image": "https://excitemike.com/botc_murder_mythery/img/akhlys.png",
        "edition": "custom",
        "firstNight": 20,
        "firstNightReminder": "Poison 2",
        "otherNight": 70,
        "otherNightReminder": "Poison 2",
        "reminders": [],
        "remindersGlobal": [
            "Poison+Akhlys may die instead"
        ],
        "setup": false,
        "name": "Akhlys",
        "team": "minion",
        "ability": "Each night you choose two other players (not yourself). They are poisoned until tomorrow night, but if they are executed while poisoned with this ability, you die the next night."
    },
    {
        "id": "andromeda",
        "image": "https://excitemike.com/botc_murder_mythery/img/andromeda.png",
        "edition": "custom",
        "firstNight": 50,
        "firstNightReminder": "Choose lover",
        "otherNight": 0,
        "otherNightReminder": "",
        "reminders": [],
        "remindersGlobal": [
            "Andromeda's lover"
        ],
        "setup": false,
        "name": "Andromeda",
        "team": "outsider",
        "ability": "On the first night choose another player. They learn who you are. If they become drunk, poisoned, die, or are resurrected, you are too. (this ability continues while dead. You keep the same target after reanimating/resurrecting)."
    },
    {
        "id": "aphrodite",
        "image": "https://excitemike.com/botc_murder_mythery/img/aphrodite.png",
        "edition": "custom",
        "firstNight": 0,
        "firstNightReminder": "",
        "otherNight": 50,
        "otherNightReminder": "Aphrodite's nominator becomes mad",
        "reminders": [],
        "remindersGlobal": [
            "Aphrodite's Bitch"
        ],
        "setup": false,
        "name": "Aphrodite",
        "team": "outsider",
        "ability": "If a good player nominates you, that night they become mad that you are a townsfolk until the end of the next day or they are executed. If you are executed while a player is mad from this ability, they die instead."
    },
    {
        "id": "apollo",
        "image": "https://excitemike.com/botc_murder_mythery/img/apollo.png",
        "edition": "custom",
        "firstNight": 0,
        "firstNightReminder": "",
        "otherNight": 150,
        "otherNightReminder": "Sacrifice.",
        "reminders": [],
        "remindersGlobal": [],
        "setup": false,
        "name": "Apollo",
        "team": "townsfolk",
        "ability": "Each night* you learn which players will die that night. Once per game, you may take the place of one of those players. (Storyteller note: treat night deaths as delayed until after Apollo gets a chance to take their place)"
    },
    {
        "id": "argos",
        "image": "https://excitemike.com/botc_murder_mythery/img/argos.png",
        "edition": "custom",
        "firstNight": 80,
        "firstNightReminder": "Sniff",
        "otherNight": 160,
        "otherNightReminder": "Sniff",
        "reminders": [],
        "remindersGlobal": [],
        "setup": false,
        "name": "Argos",
        "team": "townsfolk",
        "ability": "Each night you may choose a player. You learn whether they are drunk/poisoned."
    },
    {
        "id": "artemis",
        "image": "https://excitemike.com/botc_murder_mythery/img/artemis.png",
        "edition": "custom",
        "firstNight": 0,
        "firstNightReminder": "",
        "otherNight": 170,
        "otherNightReminder": "Choose who to test",
        "reminders": [
            "Drunk"
        ],
        "remindersGlobal": [
            "Cannot be executed"
        ],
        "setup": false,
        "name": "Artemis",
        "team": "townsfolk",
        "ability": "Each night*, choose an alive player. You learn their alignment. If you chose the demon, you are drunk until tomorrow night. If you chose a minion, they cannot be executed until tomorrow night."
    },
    {
        "id": "asclepius",
        "image": "https://excitemike.com/botc_murder_mythery/img/asclepius.png",
        "edition": "custom",
        "firstNight": 0,
        "firstNightReminder": "",
        "otherNight": 10,
        "otherNightReminder": "Animate corpse",
        "reminders": [],
        "remindersGlobal": [
            "Reanimated"
        ],
        "setup": false,
        "name": "Asclepius",
        "team": "townsfolk",
        "ability": "Once per game at night*, choose a dead player. They are reanimated (remain dead but regain their ability until killed again)."
    },
    {
        "id": "athena",
        "image": "https://excitemike.com/botc_murder_mythery/img/athena.png",
        "edition": "custom",
        "firstNight": 0,
        "firstNightReminder": "",
        "otherNight": 0,
        "otherNightReminder": "",
        "reminders": [],
        "remindersGlobal": [],
        "setup": false,
        "name": "Athena",
        "team": "townsfolk",
        "ability": "If there are 4 or more alive players, the first time one of your alive neighbors dies, they don't."
    },
    {
        "id": "cassandra",
        "image": "https://excitemike.com/botc_murder_mythery/img/cassandra.png",
        "edition": "custom",
        "firstNight": 60,
        "firstNightReminder": "Tell a truth and a lie, but not which is which.",
        "otherNight": 20,
        "otherNightReminder": "Tell which of yesterday's was true. Tell new truth and lie.",
        "reminders": [],
        "remindersGlobal": [
            "Cassandra's bad thing"
        ],
        "setup": false,
        "name": "Cassandra",
        "team": "townsfolk",
        "ability": "You are \"mad\" that you are a townsfolk other than Cassandra or might be executed. Each night the storyteller gives you one truth and one lie. You learn which is which at the start of the next night."
    },
    {
        "id": "charon",
        "image": "https://excitemike.com/botc_murder_mythery/img/charon.png",
        "edition": "custom",
        "firstNight": 0,
        "firstNightReminder": "",
        "otherNight": 110,
        "otherNightReminder": "Kill/Rez",
        "reminders": [],
        "remindersGlobal": [],
        "setup": false,
        "name": "Charon",
        "team": "demon",
        "ability": "Each night* choose a player. They die. You may instead choose a dead minion. They resurrect."
    },
    {
        "id": "dionysus",
        "image": "https://excitemike.com/botc_murder_mythery/img/dionysus.png",
        "edition": "custom",
        "firstNight": 30,
        "firstNightReminder": "Intoxicate",
        "otherNight": 120,
        "otherNightReminder": "Intoxicate",
        "reminders": [],
        "remindersGlobal": [
            "Dionysus's Victim"
        ],
        "setup": false,
        "name": "Dionysus",
        "team": "demon",
        "ability": "Each night choose a player. That player is drunk until tomorrow night. If a player chosen with this ability is nominated by a good player, the nominating player is immediately executed. If no execution occured today, the previously chosen player dies and Dionysus learns the role of an alive good player."
    },
    {
        "id": "eris",
        "image": "https://excitemike.com/botc_murder_mythery/img/eris.png",
        "edition": "custom",
        "firstNight": 0,
        "firstNightReminder": "",
        "otherNight": 130,
        "otherNightReminder": "Kill?",
        "reminders": [],
        "remindersGlobal": [],
        "setup": true,
        "name": "Eris",
        "team": "demon",
        "ability": "Each night* choose a player, they die. There is a duplicate of an outsider role . [+1 outsider]"
    },
    {
        "id": "hades",
        "image": "https://excitemike.com/botc_murder_mythery/img/hades.png",
        "edition": "custom",
        "firstNight": 0,
        "firstNightReminder": "",
        "otherNight": 140,
        "otherNightReminder": "Kill/Kill+",
        "reminders": [],
        "remindersGlobal": [
            "Reanimated til night"
        ],
        "setup": false,
        "name": "Hades",
        "team": "demon",
        "ability": "Each night* choose a player, they die. You may instead choose two players. They die, and a dead good player is reanimated (remain dead but regain their ability until killed again) until the next night."
    },
    {
        "id": "icarus",
        "image": "https://excitemike.com/botc_murder_mythery/img/icarus.png",
        "edition": "custom",
        "firstNight": 0,
        "firstNightReminder": "",
        "otherNight": 0,
        "otherNightReminder": "",
        "reminders": [
            "Hubris'd"
        ],
        "remindersGlobal": [],
        "setup": false,
        "name": "Icarus",
        "team": "townsfolk",
        "ability": "Each day you may ask the storyteller a question. Either they answer truthfully or you become drunk for the rest of the game."
    },
    {
        "id": "hermes",
        "image": "https://excitemike.com/botc_murder_mythery/img/hermes.png",
        "edition": "custom",
        "firstNight": 0,
        "firstNightReminder": "",
        "otherNight": 90,
        "otherNightReminder": "May swap roles with demon",
        "reminders": [
            "Demon was nominated"
        ],
        "remindersGlobal": [],
        "setup": false,
        "name": "Hermes",
        "team": "minion",
        "ability": "If the demon is nominated by a good player, you may swap roles with the demon that night."
    },
    {
        "id": "hydra",
        "image": "https://excitemike.com/botc_murder_mythery/img/hydra.png",
        "edition": "custom",
        "firstNight": 0,
        "firstNightReminder": "",
        "otherNight": 80,
        "otherNightReminder": "Demon acts twice",
        "reminders": [],
        "remindersGlobal": [
            "Demon acts twice"
        ],
        "setup": false,
        "name": "Hydra",
        "team": "minion",
        "ability": "If you are executed, the demon may act twice that night."
    },
    {
        "id": "lachesis",
        "image": "https://excitemike.com/botc_murder_mythery/img/lachesis.png",
        "edition": "custom",
        "firstNight": 90,
        "firstNightReminder": "You learn who was chosen with an ability at night",
        "otherNight": 180,
        "otherNightReminder": "Each night you learn who was chosen with an ability that night",
        "reminders": [],
        "remindersGlobal": [
            "Targetted at night"
        ],
        "setup": false,
        "name": "Lachesis",
        "team": "townsfolk",
        "ability": "Each night* you learn which players were chosen with an ability that night."
    },
    {
        "id": "medusa",
        "image": "https://excitemike.com/botc_murder_mythery/img/medusa.png",
        "edition": "custom",
        "firstNight": 0,
        "firstNightReminder": "",
        "otherNight": 0,
        "otherNightReminder": "",
        "reminders": [],
        "remindersGlobal": [
            "Nominated Medusa",
            "Drunk"
        ],
        "setup": false,
        "name": "Medusa",
        "team": "townsfolk",
        "ability": "If an evil player nominates you, the demon is drunk until dawn."
    },
    {
        "id": "pandora",
        "image": "https://excitemike.com/botc_murder_mythery/img/pandora.png",
        "edition": "custom",
        "firstNight": 10,
        "firstNightReminder": "See if they want to use their once-per-game",
        "otherNight": 60,
        "otherNightReminder": "See if they want to use their once-per-game",
        "reminders": [],
        "remindersGlobal": [],
        "setup": false,
        "name": "Pandora",
        "team": "townsfolk",
        "ability": "You cannot be drunk or poisoned. Once per game at night you may learn which demon is in the game. You might die that night."
    },
    {
        "id": "pegasus",
        "image": "https://excitemike.com/botc_murder_mythery/img/pegasus.png",
        "edition": "custom",
        "firstNight": 0,
        "firstNightReminder": "",
        "otherNight": 0,
        "otherNightReminder": "",
        "reminders": [],
        "remindersGlobal": [],
        "setup": false,
        "name": "Pegasus",
        "team": "townsfolk",
        "ability": "The first time an outsider dies, they don't. Instead, they and Pegasus swap roles (but not alignment) and the new Pegasus is drunk."
    },
    {
        "id": "persephone",
        "image": "https://excitemike.com/botc_murder_mythery/img/persephone.png",
        "edition": "custom",
        "firstNight": 40,
        "firstNightReminder": "Learn",
        "otherNight": 30,
        "otherNightReminder": "Change alignment!",
        "reminders": [
            "Good",
            "Bad"
        ],
        "remindersGlobal": [],
        "setup": false,
        "name": "Persephone",
        "team": "outsider",
        "ability": "On the first night you learn you are a good player. The storyteller does not visit you again, and each night you switch aligments."
    },
    {
        "id": "phoenix",
        "image": "https://excitemike.com/botc_murder_mythery/img/phoenix.png",
        "edition": "custom",
        "firstNight": 0,
        "firstNightReminder": "",
        "otherNight": 190,
        "otherNightReminder": "May resurrrect",
        "reminders": [],
        "remindersGlobal": [],
        "setup": false,
        "name": "Phoenix",
        "team": "townsfolk",
        "ability": "Once per game at night, if you are dead and 3 or fewer players live, resurrect tonight."
    },
    {
        "id": "polynices",
        "image": "https://excitemike.com/botc_murder_mythery/img/polynices.png",
        "edition": "custom",
        "firstNight": 70,
        "firstNightReminder": "Learn minion",
        "otherNight": 40,
        "otherNightReminder": "Die if minion friend executed",
        "reminders": [
            "Die tonight"
        ],
        "remindersGlobal": [
            "If executed, Polynices dies"
        ],
        "setup": false,
        "name": "Polynices",
        "team": "townsfolk",
        "ability": "You start knowing a minion role in the game (but not which player it belongs to). If a player with that role is executed, you die at night."
    },
    {
        "id": "siren",
        "image": "https://excitemike.com/botc_murder_mythery/img/siren.png",
        "edition": "custom",
        "firstNight": 0,
        "firstNightReminder": "",
        "otherNight": 100,
        "otherNightReminder": "May swap roles with demon",
        "reminders": [
            "Drunk"
        ],
        "remindersGlobal": [
            "Alive",
            "Good targets may not die"
        ],
        "setup": false,
        "name": "Siren",
        "team": "minion",
        "ability": "If you are executed, you and the demon swap roles at night. The new Siren is poisoned for the rest of the game. You are resurrected but register as dead. Good players you kill might not die."
    },
    {
        "id": "sisyphus",
        "image": "https://excitemike.com/botc_murder_mythery/img/sisyphus.png",
        "edition": "custom",
        "firstNight": 0,
        "firstNightReminder": "",
        "otherNight": 0,
        "otherNightReminder": "",
        "reminders": [],
        "remindersGlobal": [
            "Drunk"
        ],
        "setup": false,
        "name": "Sisyphus",
        "team": "outsider",
        "ability": "You must vote in all nominations or a good player becomes drunk until dawn."
    }
]